…
``` r
## all hypernyms
get_lemmas("dog", pos = "n", sensenum = 1) %>% get_outdegrees(linkid = 1)
#> # A tibble: 21 × 6
#>     synsetid lemma               sensenum definition               pos   lexdo…¹
#>        <int> <chr>                  <int> <chr>                    <chr> <chr>  
#>  1 102085998 canid                      1 any of various fissiped… n     noun.a…
#>  2 102085998 canine                     2 any of various fissiped… n     noun.a…
#>  3 101320032 domestic animal            1 any of various animals … n     noun.a…
#>  4 101320032 domesticated animal        1 any of various animals … n     noun.a…
#>  5 110759293 disagreeable woman         1 a woman who is an unple… n     noun.p…
#>  6 110759293 unpleasant woman           1 a woman who is an unple… n     noun.p…
#>  7 109927483 blighter                   2 a boy or man             n     noun.p…
#>  8 109927483 bloke                      1 a boy or man             n     noun.p…
#>  9 109927483 chap                       1 a boy or man             n     noun.p…
#> 10 109927483 cuss                       2 a boy or man             n     noun.p…
#> # … with 11 more rows, and abbreviated variable name ¹​lexdomain
```

``` r
## all hyponymes
get_lemmas("dog", pos = "n", sensenum = 1) %>% get_outdegrees(linkid = 2)
#> # A tibble: 35 × 6
#>     synsetid lemma            sensenum definition                  pos   lexdo…¹
#>        <int> <chr>               <int> <chr>                       <chr> <chr>  
#>  1 102087384 barker                  2 informal terms for dogs     n     noun.a…
#>  2 102113458 basenji                 1 small smooth-haired breed … n     noun.a…
#>  3 102115149 belgian griffon         1 breed of various very smal… n     noun.a…
#>  4 102087384 bow-wow                 2 informal terms for dogs     n     noun.a…
#>  5 102115149 brussels griffon        1 breed of various very smal… n     noun.a…
#>  6 102112993 carriage dog            1 a large breed having a smo… n     noun.a…
#>  7 102112993 coach dog               1 a large breed having a smo… n     noun.a…
#>  8 102115478 corgi                   1 either of two Welsh breeds… n     noun.a…
#>  9 102087513 cur                     1 an inferior dog or one of … n     noun.a…
#> 10 102112993 dalmatian               2 a large breed having a smo… n     noun.a…
#> # … with 25 more rows, and abbreviated variable name ¹​lexdomain
```
…
### Sugars

`sehrnett` provides several syntactic sugars as `get_` functions. For
example:

``` r
## all hyponymes
get_lemmas("dog", pos = "n", sensenum = 1) %>% get_hyponyms()
#> # A tibble: 35 × 6
#>     synsetid lemma            sensenum definition                  pos   lexdo…¹
#>        <int> <chr>               <int> <chr>                       <chr> <chr>  
#>  1 102087384 barker                  2 informal terms for dogs     n     noun.a…
#>  2 102113458 basenji                 1 small smooth-haired breed … n     noun.a…
#>  3 102115149 belgian griffon         1 breed of various very smal… n     noun.a…
#>  4 102087384 bow-wow                 2 informal terms for dogs     n     noun.a…
#>  5 102115149 brussels griffon        1 breed of various very smal… n     noun.a…
#>  6 102112993 carriage dog            1 a large breed having a smo… n     noun.a…
#>  7 102112993 coach dog               1 a large breed having a smo… n     noun.a…
#>  8 102115478 corgi                   1 either of two Welsh breeds… n     noun.a…
#>  9 102087513 cur                     1 an inferior dog or one of … n     noun.a…
#> 10 102112993 dalmatian               2 a large breed having a smo… n     noun.a…
#> # … with 25 more rows, and abbreviated variable name ¹​lexdomain
```
…
